[
    {
        "original_en": "Usefulness of the clinical notes and the measurement of▁maximum▁expiratory flow in the▁evaluation of asthmatics",
        "translated_es_en": "Usefulness of the clinical journal and maximum expiratory flow measurement in the evaluation of asthmatics",
        "original_es": "Utilidad del▁diario▁clínico y de la▁medición del▁flujo espiratorio▁máximo en la▁evaluación de los asmáticos"
    },
    {
        "original_en": "▁Presentation of 3 cases",
        "translated_es_en": "Presentation of three cases",
        "original_es": "▁Presentación de▁tres▁casos"
    },
    {
        "original_en": "Pictorial art in schizophrenia",
        "translated_es_en": "Painting Art in Schizophrenia",
        "original_es": "El▁arte pictórico en la▁esquizofrenia"
    },
    {
        "original_en": "Marasmic malnutrition and brain▁damage",
        "translated_es_en": "Marasmic malnutrition and brain damage",
        "original_es": "Desnutrición marásmica y▁daño cerebral"
    },
    {
        "original_en": "Evaluation of the use of a rapid diagnostic technique Test Pack for Chlamydia trachomatis in women",
        "translated_es_en": "Evaluation of the use of a rapid diagnosis technique of Chlamydia trachomatis Test Pack in women",
        "original_es": "▁Evaluación del empleo de una▁técnica de▁diagnóstico▁rápido de Chlamydia trachomatis Test Pack en▁mujeres"
    },
    {
        "original_en": "On the food habits and consumption of the elderly",
        "translated_es_en": "About eating habits and eating foods in the elderly",
        "original_es": "▁Sobre▁hábitos y▁consumo de▁alimentos en los▁ancianos"
    },
    {
        "original_en": "Preliminary report",
        "translated_es_en": "Preliminary notice",
        "original_es": "▁Comunicación▁preliminar"
    },
    {
        "original_en": "New concepts in neurology",
        "translated_es_en": "New concepts in neurology",
        "original_es": "▁Conceptos▁nuevos en neurología"
    },
    {
        "original_en": "Perception of a person's face and the▁process of personalization depersonalization",
        "translated_es_en": "Perception of the personal face and process of personalization-depersonalization",
        "original_es": "Percepción del▁rostro personal y▁proceso de▁personalización-despersonalización"
    },
    {
        "original_en": "▁Thrombosis of the superior sagittal sinus in an▁infant▁secondary to prolonged exposure to▁mesalazine",
        "translated_es_en": "Thrombosis of the upper longitudinal sinus in an infant secondary to prolonged exposure to mesalazine",
        "original_es": "Trombosis del▁seno longitudinal superior en un lactante▁secundaria a una▁exposición▁prolongada a▁mesalazina"
    }
]