{
    "precision": 0.5618055555555557,
    "recall": 0.5846771284271284,
    "f1_score": 0.5712819284802044,
    "bleu": 0.7813767225863294,
    "chrf": 0.7188720917888065,
    "meteor": 0.6355774089761056,
    "model_name": "Helsinki-NLP/opus-mt-es-en",
    "weights_path": "logs/Helsinki-NLP/opus-mt-es-en_0/best.pth",
    "batch_size": 32,
    "optimizer": "Adam",
    "n_epochs": 3
}